<svg xmlns="http://www.w3.org/2000/svg" width="30.316" height="30.316" viewBox="0 0 30.316 30.316">
  <path id="Icon_material-help-outline" data-name="Icon material-help-outline" d="M16.642,27.253h3.032V24.221H16.642ZM18.158,3A15.158,15.158,0,1,0,33.316,18.158,15.163,15.163,0,0,0,18.158,3Zm0,27.284A12.126,12.126,0,1,1,30.284,18.158,12.142,12.142,0,0,1,18.158,30.284Zm0-21.221a6.062,6.062,0,0,0-6.063,6.063h3.032a3.032,3.032,0,1,1,6.063,0c0,3.032-4.547,2.653-4.547,7.579h3.032c0-3.411,4.547-3.789,4.547-7.579A6.062,6.062,0,0,0,18.158,9.063Z" transform="translate(-3 -3)" fill="#fff"/>
</svg>
