<svg id="plus" xmlns="http://www.w3.org/2000/svg" width="14.926" height="14.926" viewBox="0 0 14.926 14.926">
  <g id="Group_10342" data-name="Group 10342">
    <path id="Path_37872" data-name="Path 37872" d="M14.343,6.88h-6.3V.583a.583.583,0,0,0-1.166,0v6.3H.583a.583.583,0,0,0,0,1.166h6.3v6.3a.583.583,0,0,0,1.166,0v-6.3h6.3a.583.583,0,1,0,0-1.166Z" fill="#023047"/>
  </g>
</svg>
